		"mov ecx, eax;"
		"mov edx, eax;"

		"cmp [edx], BYTE PTR 0;"
		"jne findStringEnd;"
		"jmp koniec;"

	"findStringEnd:"
		"inc edx;"
		"cmp [edx], BYTE PTR 0;"
		"jne findStringEnd;"
		"dec edx;"
		"call swapLetters;"

		"; --------------------------------------------;"

	"startNextWord:"
		";cmp [edx], BYTE PTR 0;"
		";je lastReverse;"
		"mov ecx, eax;"
		"mov edx, eax;"
		"jmp findNextSpace;"

	"findNextSpace:"
		"cmp [edx], BYTE PTR 0;"
		"je lastReverse;"
		"inc edx;"
		"cmp [edx], BYTE PTR 0;"
		"je lastReverse;"
		"cmp [edx], BYTE PTR ' ';"
		"jne findNextSpace;"

		"; record space position;"
		"mov eax, edx;"
		"inc eax;"
		"dec edx;"

		"; reverse word;"
		"call swapLetters;"
		"jmp startNextWord;"

	"lastReverse:"
		"dec edx;"
		"jmp lastSwapLetters;"

	"lastSwapLetters:"
		"call swapLetters;"

		"koniec:"


"; ===========================================================================================================================;"
"swapLetters PROC;"
	"reverseWord:"
		"mov bl, [ecx] ;"
		"mov bh, [edx] ;"
		"mov [edx], bl;"
		"mov [ecx], bh;"
		"inc ecx;"
		"dec edx;"
		"cmp edx, ecx;"
		"jg reverseWord;"
	"RET;"
"swapLetters ENDP;"
"; ===========================================================================================================================;"
